<svg width="25" height="25" viewBox="0 0 25 25" fill="none" xmlns="http://www.w3.org/2000/svg">
<path d="M12.1876 17.4404V19.5404" stroke="#12AAFF" stroke-width="1.4" stroke-linecap="round" stroke-linejoin="round"/>
<path d="M7.18759 22.9404H17.1876V21.9404C17.1876 20.8404 16.2876 19.9404 15.1876 19.9404H9.18759C8.08759 19.9404 7.18759 20.8404 7.18759 21.9404V22.9404V22.9404Z" stroke="#12AAFF" stroke-width="1.4" stroke-miterlimit="10"/>
<path d="M6.18759 22.9404H18.1876" stroke="#12AAFF" stroke-width="1.4" stroke-linecap="round" stroke-linejoin="round"/>
<path d="M12.0376 16.9404C8.1676 16.9404 5.0376 13.8104 5.0376 9.94043V6.94043C5.0376 4.73043 6.8276 2.94043 9.0376 2.94043H15.0376C17.2476 2.94043 19.0376 4.73043 19.0376 6.94043V9.94043C19.0376 13.8104 15.9076 16.9404 12.0376 16.9404Z" stroke="#12AAFF" stroke-width="1.4" stroke-linecap="round" stroke-linejoin="round"/>
<path d="M5.50759 12.5904C4.75759 12.3504 4.09759 11.9104 3.57759 11.3904C2.67759 10.3904 2.07759 9.19041 2.07759 7.79041C2.07759 6.39041 3.17759 5.29041 4.57759 5.29041H5.22759C5.02759 5.75041 4.92759 6.26041 4.92759 6.79041V9.79041C4.92759 10.7904 5.13759 11.7304 5.50759 12.5904Z" stroke="#12AAFF" stroke-width="1.4" stroke-linecap="round" stroke-linejoin="round"/>
<path d="M18.5676 12.5904C19.3176 12.3504 19.9776 11.9104 20.4976 11.3904C21.3976 10.3904 21.9976 9.19041 21.9976 7.79041C21.9976 6.39041 20.8976 5.29041 19.4976 5.29041H18.8476C19.0476 5.75041 19.1476 6.26041 19.1476 6.79041V9.79041C19.1476 10.7904 18.9376 11.7304 18.5676 12.5904Z" stroke="#12AAFF" stroke-width="1.4" stroke-linecap="round" stroke-linejoin="round"/>
</svg>
