<svg width="27" height="27" viewBox="0 0 27 27" fill="none" xmlns="http://www.w3.org/2000/svg">
<path d="M13.5 16.8187C15.2949 16.8187 16.75 15.3666 16.75 13.5754C16.75 11.7842 15.2949 10.3322 13.5 10.3322C11.7051 10.3322 10.25 11.7842 10.25 13.5754C10.25 15.3666 11.7051 16.8187 13.5 16.8187Z" stroke="#A6CEE3" stroke-width="1.5" stroke-miterlimit="10" stroke-linecap="round" stroke-linejoin="round"/>
<path d="M2.66669 14.5268V12.6241C2.66669 11.4998 3.58752 10.57 4.72502 10.57C6.68585 10.57 7.48752 9.18627 6.50169 7.48898C5.93835 6.51601 6.27419 5.25116 7.26002 4.689L9.13419 3.61874C9.99002 3.11063 11.095 3.41333 11.6042 4.26738L11.7234 4.47278C12.6984 6.17007 14.3017 6.17007 15.2875 4.47278L15.4067 4.26738C15.9159 3.41333 17.0209 3.11063 17.8767 3.61874L19.7509 4.689C20.7367 5.25116 21.0725 6.51601 20.5092 7.48898C19.5234 9.18627 20.325 10.57 22.2859 10.57C23.4125 10.57 24.3442 11.489 24.3442 12.6241V14.5268C24.3442 15.6511 23.4234 16.5808 22.2859 16.5808C20.325 16.5808 19.5234 17.9646 20.5092 19.6619C21.0725 20.6457 20.7367 21.8997 19.7509 22.4619L17.8767 23.5321C17.0209 24.0402 15.9159 23.7375 15.4067 22.8835L15.2875 22.6781C14.3125 20.9808 12.7092 20.9808 11.7234 22.6781L11.6042 22.8835C11.095 23.7375 9.99002 24.0402 9.13419 23.5321L7.26002 22.4619C6.27419 21.8997 5.93835 20.6348 6.50169 19.6619C7.48752 17.9646 6.68585 16.5808 4.72502 16.5808C3.58752 16.5808 2.66669 15.6511 2.66669 14.5268Z" stroke="#A6CEE3" stroke-width="1.5" stroke-miterlimit="10" stroke-linecap="round" stroke-linejoin="round"/>
</svg>
