<svg width="25" height="25" viewBox="0 0 25 25" fill="none" xmlns="http://www.w3.org/2000/svg">
<path d="M17.2176 18.6094C19.6176 18.6094 20.2176 17.2594 20.2176 15.6094V9.60938C20.2176 7.95938 19.6176 6.60938 17.2176 6.60938C14.8176 6.60938 14.2176 7.95938 14.2176 9.60938V15.6094C14.2176 17.2594 14.8176 18.6094 17.2176 18.6094Z" stroke="#38ABFB" stroke-width="1.3" stroke-linecap="round" stroke-linejoin="round"/>
<path d="M6.85762 18.6094C4.45762 18.6094 3.85762 17.2594 3.85762 15.6094V9.60938C3.85762 7.95938 4.45762 6.60938 6.85762 6.60938C9.25762 6.60938 9.85762 7.95938 9.85762 9.60938V15.6094C9.85762 17.2594 9.25762 18.6094 6.85762 18.6094Z" stroke="#38ABFB" stroke-width="1.3" stroke-linecap="round" stroke-linejoin="round"/>
<path d="M9.85762 12.6094H14.2176" stroke="#38ABFB" stroke-width="1.3" stroke-linecap="round" stroke-linejoin="round"/>
<path d="M22.5376 15.1094V10.1094" stroke="#38ABFB" stroke-width="1.3" stroke-linecap="round" stroke-linejoin="round"/>
<path d="M1.5376 15.1094V10.1094" stroke="#38ABFB" stroke-width="1.3" stroke-linecap="round" stroke-linejoin="round"/>
</svg>
